big data & R - Traiter des données massives en R avec arrow
…
Rows: 265 Columns: 4
── Column specification ────────────────────────────────────────────────────────
Delimiter: ","
chr (3): Borough, Zone, service_zone
dbl (1): LocationID

ℹ Use `spec()` to retrieve the full column specification for this data.
ℹ Specify the column types or set `show_col_types = FALSE` to quiet this message.

taxi_zones

# A tibble: 265 × 2
   pickup_location_id borough      
                <dbl> <chr>        
 1                  1 EWR          
 2                  2 Queens       
 3                  3 Bronx        
 4                  4 Manhattan    
 5                  5 Staten Island
 6                  6 Staten Island
 7                  7 Queens       
 8                  8 Queens       
 9                  9 Queens       
10                 10 Queens       
# ℹ 255 more rows
…
Et on peut maintenant utiliser ces objets directement :

tic()
borough_counts <- nyc_taxi |>
  filter(year == 2016) |>
  left_join(pickup) |>
  left_join(dropoff) |>
  count(pickup_borough, dropoff_borough) |>
  arrange(desc(n)) |>
  collect()

borough_counts

# A tibble: 50 × 3
   pickup_borough dropoff_borough        n
   <chr>          <chr>              <int>
 1 <NA>           <NA>            69406520
 2 Manhattan      Manhattan       51485239
 3 Manhattan      Queens           2144638
 4 Queens         Manhattan        2045826
 5 Manhattan      Brooklyn         1922556
 6 Queens         Queens           1013587
 7 Unknown        Unknown           769849
 8 Brooklyn       Brooklyn          648109
 9 Queens         Brooklyn          503246
10 Manhattan      Bronx             289341
# ℹ 40 more rows
…
  filter(
    trip_id |> as.character() |> str_detect("59"),
    second(pickup_datetime) == 59,
    minute(pickup_datetime) == 59
  ) |> 
  mutate(
    magic_number = trip_id |> 
      as.character() |> 
      str_remove_all("[^59]") |>
      as.integer()
  ) |>
  select(trip_id, magic_number, pickup_datetime) |>
  collect()

# A tibble: 1,760 × 3
   trip_id magic_number pickup_datetime    
     <dbl>        <int> <dttm>             
 1  159065          595 2018-01-01 15:59:59
 2  159066           59 2018-01-01 15:59:59
 3  159067           59 2018-01-01 15:59:59
 4  159068           59 2018-01-01 15:59:59
 5  245759          559 2018-01-02 04:59:59
 6  446590           59 2018-01-02 20:59:59
 7  446591           59 2018-01-02 20:59:59
 8  446592           59 2018-01-02 20:59:59
 9  593933          599 2018-01-03 13:59:59
10  593934          599 2018-01-03 13:59:59
# ℹ 1,750 more rows
…
