big data & R - Traiter des données massives en R avec duckdb
…
Et nous voyons bien les aéroports New Yorkais ! Visiblement les colonnes intéressantes sont LocationID et Zones. Nous allons les sélectionner et normaliser les noms :

zones <- readr::read_csv(file.path(taxi_dir, "../taxi+_zone_lookup.csv")) |>
  select(
    pickup_location_id = LocationID,
    pickup_zone = Zone
  )
zones

# A tibble: 265 × 2
   pickup_location_id pickup_zone            
                <dbl> <chr>                  
 1                  1 Newark Airport         
 2                  2 Jamaica Bay            
 3                  3 Allerton/Pelham Gardens
 4                  4 Alphabet City          
 5                  5 Arden Heights          
 6                  6 Arrochar/Fort Wadsworth
 7                  7 Astoria                
 8                  8 Astoria Park           
 9                  9 Auburndale             
10                 10 Baisley Park           
# ℹ 255 more rows
…
